iiitb_bc_out.vcd
$date
	Mon Aug 15 23:04:00 2022
$end
$version
	Icarus Verilog
$end
$timescale
	1ps
$end
$scope module iiitb_bc_tb $end
$var wire 4 ! Count [3:0] $end
$var reg 1 " Clk $end
$var reg 1 # UpOrDown $end
$var reg 1 $ reset $end
$scope module uut $end
$var wire 1 " Clk $end
$var wire 1 # UpOrDown $end
$var wire 1 $ reset $end
$var wire 1 % _07_ $end
$var wire 1 & _06_ $end
$var wire 1 ' _05_ $end
$var wire 1 ( _04_ $end
$var wire 1 ) _03_ $end
$var wire 1 * _02_ $end
$var wire 1 + _01_ $end
$var wire 4 , _00_ [3:0] $end
$var wire 4 - Count [3:0] $end
$scope module _08_ $end
$var wire 1 . A $end
$var wire 1 / VGND $end
$var wire 1 0 VNB $end
$var wire 1 1 VPB $end
$var wire 1 2 VPWR $end
$var wire 1 3 Y $end
$scope module base $end
$var wire 1 . A $end
$var wire 1 3 Y $end
$var wire 1 4 not0_out_Y $end
$upscope $end
$upscope $end
$scope module _09_ $end
$var wire 1 $ A $end
$var wire 1 5 VGND $end
$var wire 1 6 VNB $end
$var wire 1 7 VPB $end
$var wire 1 8 VPWR $end
$var wire 1 + Y $end
$scope module base $end
$var wire 1 $ A $end
$var wire 1 + Y $end
$var wire 1 9 not0_out_Y $end
$upscope $end
$upscope $end
$scope module _10_ $end
$var wire 1 : A $end
$var wire 1 ; B $end
$var wire 1 # C $end
$var wire 1 < VGND $end
$var wire 1 = VNB $end
$var wire 1 > VPB $end
$var wire 1 ? VPWR $end
$var wire 1 * X $end
$scope module base $end
$var wire 1 : A $end
$var wire 1 ; B $end
$var wire 1 # C $end
$var wire 1 * X $end
$var wire 1 @ and0_out_X $end
$upscope $end
$upscope $end
$scope module _11_ $end
$var wire 1 A A $end
$var wire 1 B B $end
$var wire 1 # C $end
$var wire 1 C VGND $end
$var wire 1 D VNB $end
$var wire 1 E VPB $end
$var wire 1 F VPWR $end
$var wire 1 ) Y $end
$scope module base $end
$var wire 1 A A $end
$var wire 1 B B $end
$var wire 1 # C $end
$var wire 1 ) Y $end
$var wire 1 G nor0_out_Y $end
$upscope $end
$upscope $end
$scope module _12_ $end
$var wire 1 H A $end
$var wire 1 I B $end
$var wire 1 # C $end
$var wire 1 J VGND $end
$var wire 1 K VNB $end
$var wire 1 L VPB $end
$var wire 1 M VPWR $end
$var wire 1 ( X $end
$scope module base $end
$var wire 1 H A $end
$var wire 1 I B $end
$var wire 1 # C $end
$var wire 1 ( X $end
$var wire 1 N and0_out $end
$var wire 1 O and1_out $end
$var wire 1 P or0_out $end
$var wire 1 Q or1_out_X $end
$upscope $end
$upscope $end
$scope module _13_ $end
$var wire 1 ) A $end
$var wire 1 ( B $end
$var wire 1 R VGND $end
$var wire 1 S VNB $end
$var wire 1 T VPB $end
$var wire 1 U VPWR $end
$var wire 1 ' Y $end
$scope module base $end
$var wire 1 ) A $end
$var wire 1 ( B $end
$var wire 1 ' Y $end
$var wire 1 V nor0_out_Y $end
$upscope $end
$upscope $end
$scope module _14_ $end
$var wire 1 * A $end
$var wire 1 ' B $end
$var wire 1 W VGND $end
$var wire 1 X VNB $end
$var wire 1 Y VPB $end
$var wire 1 Z VPWR $end
$var wire 1 [ Y $end
$scope module base $end
$var wire 1 * A $end
$var wire 1 ' B $end
$var wire 1 [ Y $end
$var wire 1 \ nor0_out_Y $end
$upscope $end
$upscope $end
$scope module _15_ $end
$var wire 1 * A $end
$var wire 1 ) B $end
$var wire 1 ] VGND $end
$var wire 1 ^ VNB $end
$var wire 1 _ VPB $end
$var wire 1 ` VPWR $end
$var wire 1 & Y $end
$scope module base $end
$var wire 1 * A $end
$var wire 1 ) B $end
$var wire 1 & Y $end
$var wire 1 a nor0_out_Y $end
$upscope $end
$upscope $end
$scope module _16_ $end
$var wire 1 b A $end
$var wire 1 & B $end
$var wire 1 c VGND $end
$var wire 1 d VNB $end
$var wire 1 e VPB $end
$var wire 1 f VPWR $end
$var wire 1 g Y $end
$scope module base $end
$var wire 1 b A $end
$var wire 1 & B $end
$var wire 1 g Y $end
$var wire 1 h xnor0_out_Y $end
$upscope $end
$upscope $end
$scope module _17_ $end
$var wire 1 ) A0 $end
$var wire 1 * A1 $end
$var wire 1 i S $end
$var wire 1 j VGND $end
$var wire 1 k VNB $end
$var wire 1 l VPB $end
$var wire 1 m VPWR $end
$var wire 1 % Y $end
$scope module base $end
$var wire 1 ) A0 $end
$var wire 1 * A1 $end
$var wire 1 i S $end
$var wire 1 % Y $end
$var wire 1 n mux_2to1_n0_out_Y $end
$upscope $end
$upscope $end
$scope module _18_ $end
$var wire 1 o A $end
$var wire 1 % B $end
$var wire 1 p VGND $end
$var wire 1 q VNB $end
$var wire 1 r VPB $end
$var wire 1 s VPWR $end
$var wire 1 t Y $end
$scope module base $end
$var wire 1 o A $end
$var wire 1 % B $end
$var wire 1 t Y $end
$var wire 1 u xnor0_out_Y $end
$upscope $end
$upscope $end
$scope module _19_ $end
$var wire 1 " CLK $end
$var wire 1 v D $end
$var wire 1 + RESET_B $end
$var wire 1 w VGND $end
$var wire 1 x VNB $end
$var wire 1 y VPB $end
$var wire 1 z VPWR $end
$var wire 1 { Q $end
$scope module base $end
$var wire 1 " CLK $end
$var wire 1 v D $end
$var wire 1 { Q $end
$var wire 1 | RESET $end
$var wire 1 + RESET_B $end
$var wire 1 } buf_Q $end
$upscope $end
$upscope $end
$scope module _20_ $end
$var wire 1 " CLK $end
$var wire 1 ~ D $end
$var wire 1 + RESET_B $end
$var wire 1 !" VGND $end
$var wire 1 "" VNB $end
$var wire 1 #" VPB $end
$var wire 1 $" VPWR $end
$var wire 1 %" Q $end
$scope module base $end
$var wire 1 " CLK $end
$var wire 1 ~ D $end
$var wire 1 %" Q $end
$var wire 1 &" RESET $end
$var wire 1 + RESET_B $end
$var wire 1 '" buf_Q $end
$upscope $end
$upscope $end
$scope module _21_ $end
$var wire 1 " CLK $end
$var wire 1 (" D $end
$var wire 1 + RESET_B $end
$var wire 1 )" VGND $end
$var wire 1 *" VNB $end
$var wire 1 +" VPB $end
$var wire 1 ," VPWR $end
$var wire 1 -" Q $end
$scope module base $end
$var wire 1 " CLK $end
$var wire 1 (" D $end
$var wire 1 -" Q $end
$var wire 1 ." RESET $end
$var wire 1 + RESET_B $end
$var wire 1 /" buf_Q $end
$upscope $end
$upscope $end
$scope module _22_ $end
$var wire 1 " CLK $end
$var wire 1 0" D $end
$var wire 1 + RESET_B $end
$var wire 1 1" VGND $end
$var wire 1 2" VNB $end
$var wire 1 3" VPB $end
$var wire 1 4" VPWR $end
$var wire 1 5" Q $end
$scope module base $end
$var wire 1 " CLK $end
$var wire 1 0" D $end
$var wire 1 5" Q $end
$var wire 1 6" RESET $end
$var wire 1 + RESET_B $end
$var wire 1 7" buf_Q $end
$upscope $end
$upscope $end
$upscope $end
$upscope $end
$enddefinitions $end
#0
$dumpvars
x7"
06"
x5"
14"
13"
02"
01"
x0"
x/"
0."
x-"
1,"
1+"
0*"
0)"
x("
x'"
0&"
x%"
1$"
1#"
0""
0!"
x~
x}
0|
x{
1z
1y
0x
0w
xv
xu
xt
1s
1r
0q
0p
xo
xn
1m
1l
0k
0j
xi
xh
xg
1f
1e
0d
0c
xb
xa
1`
1_
0^
0]
x\
x[
1Z
1Y
0X
0W
xV
1U
1T
0S
0R
xQ
xP
xO
0N
1M
1L
0K
0J
xI
xH
xG
1F
1E
0D
0C
xB
xA
0@
1?
1>
0=
0<
x;
x:
19
18
17
06
05
x4
x3
12
11
00
0/
x.
bx -
bx ,
1+
0*
x)
x(
x'
x&
x%
0$
0#
0"
bx !
$end
#5000
1"
#10000
0"
#15000
1"
#20000
0"
#25000
1"
#30000
x*
0)
x@
0G
xN
0"
1#
#35000
1"
#40000
0"
#45000
1"
#50000
0"
#55000
1"
#60000
1|
1&"
1."
16"
0*
x)
0+
0@
xG
0N
09
0"
0#
1$
#61000
1~
1("
10"
1[
1g
1t
1\
1h
1u
0'
0&
0%
1v
0(
0V
0a
0n
b1111 ,
13
0Q
1)
14
0P
0O
1G
0H
0A
0:
0.
0I
0B
0;
0i
0b
0o
0{
0%"
0-"
b0 !
b0 -
05"
0}
0'"
0/"
07"
#65000
1"
#70000
0"
#75000
1"
#80000
0"
#85000
1"
#90000
0"
#95000
1"
#100000
0"
#105000
1"
#110000
0"
#115000
1"
#120000
0"
#125000
1"
#130000
0"
#135000
1"
#140000
0"
#145000
1"
#150000
0"
#155000
1"
#160000
0|
0&"
0."
06"
1+
19
0"
0$
#165000
1"
#166000
1~
1[
1\
0'
1&
0v
1(
0V
1a
1("
10"
03
1Q
0)
1%
1g
b1110 ,
1t
04
1P
1O
0G
1n
1h
1u
1H
1A
1:
1.
1I
1B
1;
1i
1b
1o
1{
1%"
1-"
b1111 !
b1111 -
15"
1}
1'"
1/"
17"
#170000
0"
#175000
1"
#176000
0~
0[
0\
1'
1V
0(
1v
0Q
b1101 ,
13
0O
14
0H
0A
0:
0.
b1110 !
b1110 -
0{
0}
#180000
0"
#185000
1"
#186000
0v
b1100 ,
03
04
1H
1A
1:
1.
0I
0B
0;
1{
b1101 !
b1101 -
0%"
1}
0'"
#190000
0"
#195000
1"
#196000
1~
0("
1[
0g
1\
0h
0'
0&
0V
0a
1v
1)
b1011 ,
13
0P
1G
14
0H
0A
0:
0.
b1100 !
b1100 -
0{
0}
#200000
0"
#205000
1"
#206000
1~
1[
1\
10"
0'
1&
1t
0v
1(
0V
1a
1u
0("
03
1Q
0)
1%
b1010 ,
0g
04
1P
1O
0G
1n
0h
1H
1A
1:
1.
1I
1B
1;
0i
0b
1{
1%"
b1011 !
b1011 -
0-"
1}
1'"
0/"
#210000
0"
#215000
1"
#216000
0~
0[
0\
1'
1V
0(
1v
0Q
b1001 ,
13
0O
14
0H
0A
0:
0.
b1010 !
b1010 -
0{
0}
#220000
0"
#225000
1"
#226000
0v
b1000 ,
03
04
1H
1A
1:
1.
0I
0B
0;
1{
b1001 !
b1001 -
0%"
1}
0'"
#230000
0"
#235000
1"
#236000
1~
1("
00"
1[
1g
0t
1\
1h
0u
0'
0&
0%
0V
0a
0n
1v
1)
b111 ,
13
0P
1G
14
0H
0A
0:
0.
b1000 !
b1000 -
0{
0}
#240000
0"
#245000
1"
#246000
1~
1[
1\
0'
1&
0v
1(
0V
1a
1("
00"
03
1Q
0)
1%
1g
b110 ,
0t
04
1P
1O
0G
1n
1h
0u
1H
1A
1:
1.
1I
1B
1;
1i
1b
0o
1{
1%"
1-"
b111 !
b111 -
05"
1}
1'"
1/"
07"
#250000
0"
#255000
1"
#256000
0~
0[
0\
1'
1V
0(
1v
0Q
b101 ,
13
0O
14
0H
0A
0:
0.
b110 !
b110 -
0{
0}
#260000
0"
#265000
1"
#266000
0v
b100 ,
03
04
1H
1A
1:
1.
0I
0B
0;
1{
b101 !
b101 -
0%"
1}
0'"
#270000
0"
#275000
1"
#276000
1~
0("
1[
0g
1\
0h
0'
0&
0V
0a
1v
1)
b11 ,
13
0P
1G
14
0H
0A
0:
0.
b100 !
b100 -
0{
0}
#280000
0"
#285000
1"
#286000
1~
1[
1\
00"
0'
1&
0t
0v
1(
0V
1a
0u
0("
03
1Q
0)
1%
b10 ,
0g
04
1P
1O
0G
1n
0h
1H
1A
1:
1.
1I
1B
1;
0i
0b
1{
1%"
b11 !
b11 -
0-"
1}
1'"
0/"
#290000
0"
#295000
1"
#296000
0~
0[
0\
1'
1V
0(
1v
0Q
b1 ,
13
0O
14
0H
0A
0:
0.
b10 !
b10 -
0{
0}
#300000
0"
#305000
1"
#306000
0v
b0 ,
03
04
1H
1A
1:
1.
0I
0B
0;
1{
b1 !
b1 -
0%"
1}
0'"
#310000
0"
#315000
1"
#316000
1~
1("
10"
1[
1g
1t
1\
1h
1u
0'
0&
0%
0V
0a
0n
1v
1)
b1111 ,
13
0P
1G
14
0H
0A
0:
0.
b0 !
b0 -
0{
0}
#320000
0"
#325000
1"
#326000
1~
1[
1\
0'
1&
0v
1(
0V
1a
1("
10"
03
1Q
0)
1%
1g
b1110 ,
1t
04
1P
1O
0G
1n
1h
1u
1H
1A
1:
1.
1I
1B
1;
1i
1b
1o
1{
1%"
1-"
b1111 !
b1111 -
15"
1}
1'"
1/"
17"
#330000
0"
#335000
1"
#336000
0~
0[
0\
1'
1V
0(
1v
0Q
b1101 ,
13
0O
14
0H
0A
0:
0.
b1110 !
b1110 -
0{
0}
#340000
0"
#345000
1"
#346000
0v
b1100 ,
03
04
1H
1A
1:
1.
0I
0B
0;
1{
b1101 !
b1101 -
0%"
1}
0'"
#350000
0"
#355000
1"
#356000
1~
0("
1[
0g
1\
0h
0'
0&
0V
0a
1v
1)
b1011 ,
13
0P
1G
14
0H
0A
0:
0.
b1100 !
b1100 -
0{
0}
#360000
0"
#365000
1"
#366000
1~
1[
1\
10"
0'
1&
1t
0v
1(
0V
1a
1u
0("
03
1Q
0)
1%
b1010 ,
0g
04
1P
1O
0G
1n
0h
1H
1A
1:
1.
1I
1B
1;
0i
0b
1{
1%"
b1011 !
b1011 -
0-"
1}
1'"
0/"
#370000
0"
#375000
1"
#376000
0~
0[
0\
1'
1V
0(
1v
0Q
b1001 ,
13
0O
14
0H
0A
0:
0.
b1010 !
b1010 -
0{
0}
#380000
0"
#385000
1"
#386000
0v
b1000 ,
03
04
1H
1A
1:
1.
0I
0B
0;
1{
b1001 !
b1001 -
0%"
1}
0'"
#390000
0"
#395000
1"
#396000
1~
1("
00"
1[
1g
0t
1\
1h
0u
0'
0&
0%
0V
0a
0n
1v
1)
b111 ,
13
0P
1G
14
0H
0A
0:
0.
b1000 !
b1000 -
0{
0}
#400000
0"
#405000
1"
#406000
1~
1[
1\
0'
1&
0v
1(
0V
1a
1("
00"
03
1Q
0)
1%
1g
b110 ,
0t
04
1P
1O
0G
1n
1h
0u
1H
1A
1:
1.
1I
1B
1;
1i
1b
0o
1{
1%"
1-"
b111 !
b111 -
05"
1}
1'"
1/"
07"
#410000
0"
#415000
1"
#416000
0~
0[
0\
1'
1V
0(
1v
0Q
b101 ,
13
0O
14
0H
0A
0:
0.
b110 !
b110 -
0{
0}
#420000
0"
#425000
1"
#426000
0v
b100 ,
03
04
1H
1A
1:
1.
0I
0B
0;
1{
b101 !
b101 -
0%"
1}
0'"
#430000
0"
#435000
1"
#436000
1~
0("
1[
0g
1\
0h
0'
0&
0V
0a
1v
1)
b11 ,
13
0P
1G
14
0H
0A
0:
0.
b100 !
b100 -
0{
0}
#440000
0"
#445000
1"
#446000
1~
1[
1\
00"
0'
1&
0t
0v
1(
0V
1a
0u
0("
03
1Q
0)
1%
b10 ,
0g
04
1P
1O
0G
1n
0h
1H
1A
1:
1.
1I
1B
1;
0i
0b
1{
1%"
b11 !
b11 -
0-"
1}
1'"
0/"
#450000
0"
#455000
1"
#456000
0~
0[
0\
1'
1V
0(
1v
0Q
b1 ,
13
0O
14
0H
0A
0:
0.
b10 !
b10 -
0{
0}
#460000
0"
#465000
1"
#466000
0v
b0 ,
03
04
1H
1A
1:
1.
0I
0B
0;
1{
b1 !
b1 -
0%"
1}
0'"
#470000
0"
#475000
1"
#476000
1~
1("
10"
1[
1g
1t
1\
1h
1u
0'
0&
0%
0V
0a
0n
1v
1)
b1111 ,
13
0P
1G
14
0H
0A
0:
0.
b0 !
b0 -
0{
0}
#480000
0"
#485000
1"
#486000
1~
1[
1\
0'
1&
0v
1(
0V
1a
1("
10"
03
1Q
0)
1%
1g
b1110 ,
1t
04
1P
1O
0G
1n
1h
1u
1H
1A
1:
1.
1I
1B
1;
1i
1b
1o
1{
1%"
1-"
b1111 !
b1111 -
15"
1}
1'"
1/"
17"
#490000
0"
#495000
1"
#496000
0~
0[
0\
1'
1V
0(
1v
0Q
b1101 ,
13
0O
14
0H
0A
0:
0.
b1110 !
b1110 -
0{
0}
#500000
0"
#505000
1"
#506000
0v
b1100 ,
03
04
1H
1A
1:
1.
0I
0B
0;
1{
b1101 !
b1101 -
0%"
1}
0'"
#510000
0"
#515000
1"
#516000
1~
0("
1[
0g
1\
0h
0'
0&
0V
0a
1v
1)
b1011 ,
13
0P
1G
14
0H
0A
0:
0.
b1100 !
b1100 -
0{
0}
#520000
0"
#525000
1"
#526000
1~
1[
1\
10"
0'
1&
1t
0v
1(
0V
1a
1u
0("
03
1Q
0)
1%
b1010 ,
0g
04
1P
1O
0G
1n
0h
1H
1A
1:
1.
1I
1B
1;
0i
0b
1{
1%"
b1011 !
b1011 -
0-"
1}
1'"
0/"
#530000
0"
#535000
1"
#536000
0~
0[
0\
1'
1V
0(
1v
0Q
b1001 ,
13
0O
14
0H
0A
0:
0.
b1010 !
b1010 -
0{
0}
#540000
0"
#545000
1"
#546000
0v
b1000 ,
03
04
1H
1A
1:
1.
0I
0B
0;
1{
b1001 !
b1001 -
0%"
1}
0'"
#550000
0"
#555000
1"
#556000
1~
1("
00"
1[
1g
0t
1\
1h
0u
0'
0&
0%
0V
0a
0n
1v
1)
b111 ,
13
0P
1G
14
0H
0A
0:
0.
b1000 !
b1000 -
0{
0}
#560000
0"
#565000
1"
#566000
1~
1[
1\
0'
1&
0v
1(
0V
1a
1("
00"
03
1Q
0)
1%
1g
b110 ,
0t
04
1P
1O
0G
1n
1h
0u
1H
1A
1:
1.
1I
1B
1;
1i
1b
0o
1{
1%"
1-"
b111 !
b111 -
05"
1}
1'"
1/"
07"
#570000
0"
#575000
1"
#576000
0~
0[
0\
1'
1V
0(
1v
0Q
b101 ,
13
0O
14
0H
0A
0:
0.
b110 !
b110 -
0{
0}
#580000
0"
#585000
1"
#586000
0v
b100 ,
03
04
1H
1A
1:
1.
0I
0B
0;
1{
b101 !
b101 -
0%"
1}
0'"
#590000
0"
#595000
1"
#596000
1~
0("
1[
0g
1\
0h
0'
0&
0V
0a
1v
1)
b11 ,
13
0P
1G
14
0H
0A
0:
0.
b100 !
b100 -
0{
0}
#600000
0"
#605000
1"
#606000
1~
1[
1\
00"
0'
1&
0t
0v
1(
0V
1a
0u
0("
03
1Q
0)
1%
b10 ,
0g
04
1P
1O
0G
1n
0h
1H
1A
1:
1.
1I
1B
1;
0i
0b
1{
1%"
b11 !
b11 -
0-"
1}
1'"
0/"
#610000
0"
#615000
1"
#616000
0~
0[
0\
1'
1V
0(
1v
0Q
b1 ,
13
0O
14
0H
0A
0:
0.
b10 !
b10 -
0{
0}
#620000
0"
#625000
1"
#626000
0v
b0 ,
03
04
1H
1A
1:
1.
0I
0B
0;
1{
b1 !
b1 -
0%"
1}
0'"
#630000
0"
#635000
1"
#636000
1~
1("
10"
1[
1g
1t
1\
1h
1u
0'
0&
0%
0V
0a
0n
1v
1)
b1111 ,
13
0P
1G
14
0H
0A
0:
0.
b0 !
b0 -
0{
0}
#640000
0"
#645000
1"
#646000
1~
1[
1\
0'
1&
0v
1(
0V
1a
1("
10"
03
1Q
0)
1%
1g
b1110 ,
1t
04
1P
1O
0G
1n
1h
1u
1H
1A
1:
1.
1I
1B
1;
1i
1b
1o
1{
1%"
1-"
b1111 !
b1111 -
15"
1}
1'"
1/"
17"
#650000
0"
#655000
1"
#656000
0~
0[
0\
1'
1V
0(
1v
0Q
b1101 ,
13
0O
14
0H
0A
0:
0.
b1110 !
b1110 -
0{
0}
#660000
0"
#665000
1"
#666000
0v
b1100 ,
03
04
1H
1A
1:
1.
0I
0B
0;
1{
b1101 !
b1101 -
0%"
1}
0'"
#670000
0"
#675000
1"
#676000
1~
0("
1[
0g
1\
0h
0'
0&
0V
0a
1v
1)
b1011 ,
13
0P
1G
14
0H
0A
0:
0.
b1100 !
b1100 -
0{
0}
#680000
0"
#685000
1"
#686000
1~
1[
1\
10"
0'
1&
1t
0v
1(
0V
1a
1u
0("
03
1Q
0)
1%
b1010 ,
0g
04
1P
1O
0G
1n
0h
1H
1A
1:
1.
1I
1B
1;
0i
0b
1{
1%"
b1011 !
b1011 -
0-"
1}
1'"
0/"
#690000
0"
#695000
1"
#696000
0~
0[
0\
1'
1V
0(
1v
0Q
b1001 ,
13
0O
14
0H
0A
0:
0.
b1010 !
b1010 -
0{
0}
#700000
0"
#705000
1"
#706000
0v
b1000 ,
03
04
1H
1A
1:
1.
0I
0B
0;
1{
b1001 !
b1001 -
0%"
1}
0'"
#710000
0"
#715000
1"
#716000
1~
1("
00"
1[
1g
0t
1\
1h
0u
0'
0&
0%
0V
0a
0n
1v
1)
b111 ,
13
0P
1G
14
0H
0A
0:
0.
b1000 !
b1000 -
0{
0}
#720000
0"
#725000
1"
#726000
1~
1[
1\
0'
1&
0v
1(
0V
1a
1("
00"
03
1Q
0)
1%
1g
b110 ,
0t
04
1P
1O
0G
1n
1h
0u
1H
1A
1:
1.
1I
1B
1;
1i
1b
0o
1{
1%"
1-"
b111 !
b111 -
05"
1}
1'"
1/"
07"
#730000
0"
#735000
1"
#736000
0~
0[
0\
1'
1V
0(
1v
0Q
b101 ,
13
0O
14
0H
0A
0:
0.
b110 !
b110 -
0{
0}
#740000
0"
#745000
1"
#746000
0v
b100 ,
03
04
1H
1A
1:
1.
0I
0B
0;
1{
b101 !
b101 -
0%"
1}
0'"
#750000
0"
#755000
1"
#756000
1~
0("
1[
0g
1\
0h
0'
0&
0V
0a
1v
1)
b11 ,
13
0P
1G
14
0H
0A
0:
0.
b100 !
b100 -
0{
0}
#760000
0"
#765000
1"
#766000
1~
1[
1\
00"
0'
1&
0t
0v
1(
0V
1a
0u
0("
03
1Q
0)
1%
b10 ,
0g
04
1P
1O
0G
1n
0h
1H
1A
1:
1.
1I
1B
1;
0i
0b
1{
1%"
b11 !
b11 -
0-"
1}
1'"
0/"
#770000
0"
#775000
1"
#776000
0~
0[
0\
1'
1V
0(
1v
0Q
b1 ,
13
0O
14
0H
0A
0:
0.
b10 !
b10 -
0{
0}
#780000
0"
#785000
1"
#786000
0v
b0 ,
03
04
1H
1A
1:
1.
0I
0B
0;
1{
b1 !
b1 -
0%"
1}
0'"
#790000
0"
#795000
1"
#796000
1~
1("
10"
1[
1g
1t
1\
1h
1u
0'
0&
0%
0V
0a
0n
1v
1)
b1111 ,
13
0P
1G
14
0H
0A
0:
0.
b0 !
b0 -
0{
0}
#800000
0"
#805000
1"
#806000
1~
1[
1\
0'
1&
0v
1(
0V
1a
1("
10"
03
1Q
0)
1%
1g
b1110 ,
1t
04
1P
1O
0G
1n
1h
1u
1H
1A
1:
1.
1I
1B
1;
1i
1b
1o
1{
1%"
1-"
b1111 !
b1111 -
15"
1}
1'"
1/"
17"
#810000
0"
#815000
1"
#816000
0~
0[
0\
1'
1V
0(
1v
0Q
b1101 ,
13
0O
14
0H
0A
0:
0.
b1110 !
b1110 -
0{
0}
#820000
0"
#825000
1"
#826000
0v
b1100 ,
03
04
1H
1A
1:
1.
0I
0B
0;
1{
b1101 !
b1101 -
0%"
1}
0'"
#830000
0"
#835000
1"
#836000
1~
0("
1[
0g
1\
0h
0'
0&
0V
0a
1v
1)
b1011 ,
13
0P
1G
14
0H
0A
0:
0.
b1100 !
b1100 -
0{
0}
#840000
0"
#845000
1"
#846000
1~
1[
1\
10"
0'
1&
1t
0v
1(
0V
1a
1u
0("
03
1Q
0)
1%
b1010 ,
0g
04
1P
1O
0G
1n
0h
1H
1A
1:
1.
1I
1B
1;
0i
0b
1{
1%"
b1011 !
b1011 -
0-"
1}
1'"
0/"
#850000
0"
#855000
1"
#856000
0~
0[
0\
1'
1V
0(
1v
0Q
b1001 ,
13
0O
14
0H
0A
0:
0.
b1010 !
b1010 -
0{
0}
#860000
0"
#865000
1"
#866000
0v
b1000 ,
03
04
1H
1A
1:
1.
0I
0B
0;
1{
b1001 !
b1001 -
0%"
1}
0'"
#870000
0"
#875000
1"
#876000
1~
1("
00"
1[
1g
0t
1\
1h
0u
0'
0&
0%
0V
0a
0n
1v
1)
b111 ,
13
0P
1G
14
0H
0A
0:
0.
b1000 !
b1000 -
0{
0}
#880000
0"
#885000
1"
#886000
1~
1[
1\
0'
1&
0v
1(
0V
1a
1("
00"
03
1Q
0)
1%
1g
b110 ,
0t
04
1P
1O
0G
1n
1h
0u
1H
1A
1:
1.
1I
1B
1;
1i
1b
0o
1{
1%"
1-"
b111 !
b111 -
05"
1}
1'"
1/"
07"
#890000
0"
#895000
1"
#896000
0~
0[
0\
1'
1V
0(
1v
0Q
b101 ,
13
0O
14
0H
0A
0:
0.
b110 !
b110 -
0{
0}
#900000
0"
#905000
1"
#906000
0v
b100 ,
03
04
1H
1A
1:
1.
0I
0B
0;
1{
b101 !
b101 -
0%"
1}
0'"
#910000
0"
#915000
1"
#916000
1~
0("
1[
0g
1\
0h
0'
0&
0V
0a
1v
1)
b11 ,
13
0P
1G
14
0H
0A
0:
0.
b100 !
b100 -
0{
0}
#920000
0"
#925000
1"
#926000
1~
1[
1\
00"
0'
1&
0t
0v
1(
0V
1a
0u
0("
03
1Q
0)
1%
b10 ,
0g
04
1P
1O
0G
1n
0h
1H
1A
1:
1.
1I
1B
1;
0i
0b
1{
1%"
b11 !
b11 -
0-"
1}
1'"
0/"
#930000
0"
#935000
1"
#936000
0~
0[
0\
1'
1V
0(
1v
0Q
b1 ,
13
0O
14
0H
0A
0:
0.
b10 !
b10 -
0{
0}
#940000
0"
#945000
1"
#946000
0v
b0 ,
03
04
1H
1A
1:
1.
0I
0B
0;
1{
b1 !
b1 -
0%"
1}
0'"
#950000
0"
#955000
1"
#956000
1~
1("
10"
1[
1g
1t
1\
1h
1u
0'
0&
0%
0V
0a
0n
1v
1)
b1111 ,
13
0P
1G
14
0H
0A
0:
0.
b0 !
b0 -
0{
0}
#960000
0"
#965000
1"
#966000
1~
1[
1\
0'
1&
0v
1(
0V
1a
1("
10"
03
1Q
0)
1%
1g
b1110 ,
1t
04
1P
1O
0G
1n
1h
1u
1H
1A
1:
1.
1I
1B
1;
1i
1b
1o
1{
1%"
1-"
b1111 !
b1111 -
15"
1}
1'"
1/"
17"
#970000
0"
#975000
1"
#976000
0~
0[
0\
1'
1V
0(
1v
0Q
b1101 ,
13
0O
14
0H
0A
0:
0.
b1110 !
b1110 -
0{
0}
#980000
0"
#985000
1"
#986000
0v
b1100 ,
03
04
1H
1A
1:
1.
0I
0B
0;
1{
b1101 !
b1101 -
0%"
1}
0'"
#990000
0"
#995000
1"
#996000
1~
0("
1[
0g
1\
0h
0'
0&
0V
0a
1v
1)
b1011 ,
13
0P
1G
14
0H
0A
0:
0.
b1100 !
b1100 -
0{
0}
#1000000
0"
#1005000
1"
#1006000
1~
1[
1\
10"
0'
1&
1t
0v
1(
0V
1a
1u
0("
03
1Q
0)
1%
b1010 ,
0g
04
1P
1O
0G
1n
0h
1H
1A
1:
1.
1I
1B
1;
0i
0b
1{
1%"
b1011 !
b1011 -
0-"
1}
1'"
0/"
#1010000
0"
#1015000
1"
#1016000
0~
0[
0\
1'
1V
0(
1v
0Q
b1001 ,
13
0O
14
0H
0A
0:
0.
b1010 !
b1010 -
0{
0}
#1020000
0"
#1025000
1"
#1026000
0v
b1000 ,
03
04
1H
1A
1:
1.
0I
0B
0;
1{
b1001 !
b1001 -
0%"
1}
0'"
#1030000
0"
#1035000
1"
#1036000
1~
1("
00"
1[
1g
0t
1\
1h
0u
0'
0&
0%
0V
0a
0n
1v
1)
b111 ,
13
0P
1G
14
0H
0A
0:
0.
b1000 !
b1000 -
0{
0}
#1040000
0"
#1045000
1"
#1046000
1~
1[
1\
0'
1&
0v
1(
0V
1a
1("
00"
03
1Q
0)
1%
1g
b110 ,
0t
04
1P
1O
0G
1n
1h
0u
1H
1A
1:
1.
1I
1B
1;
1i
1b
0o
1{
1%"
1-"
b111 !
b111 -
05"
1}
1'"
1/"
07"
#1050000
0"
#1055000
1"
#1056000
0~
0[
0\
1'
1V
0(
1v
0Q
b101 ,
13
0O
14
0H
0A
0:
0.
b110 !
b110 -
0{
0}
#1060000
0"
#1065000
1"
#1066000
0v
b100 ,
03
04
1H
1A
1:
1.
0I
0B
0;
1{
b101 !
b101 -
0%"
1}
0'"
#1070000
0"
#1075000
1"
#1076000
1~
0("
1[
0g
1\
0h
0'
0&
0V
0a
1v
1)
b11 ,
13
0P
1G
14
0H
0A
0:
0.
b100 !
b100 -
0{
0}
#1080000
0"
#1085000
1"
#1086000
1~
1[
1\
00"
0'
1&
0t
0v
1(
0V
1a
0u
0("
03
1Q
0)
1%
b10 ,
0g
04
1P
1O
0G
1n
0h
1H
1A
1:
1.
1I
1B
1;
0i
0b
1{
1%"
b11 !
b11 -
0-"
1}
1'"
0/"
#1090000
0"
#1095000
1"
#1096000
0~
0[
0\
1'
1V
0(
1v
0Q
b1 ,
13
0O
14
0H
0A
0:
0.
b10 !
b10 -
0{
0}
#1100000
0"
#1105000
1"
#1106000
0v
b0 ,
03
04
1H
1A
1:
1.
0I
0B
0;
1{
b1 !
b1 -
0%"
1}
0'"
#1110000
0"
#1115000
1"
#1116000
1~
1("
10"
1[
1g
1t
1\
1h
1u
0'
0&
0%
0V
0a
0n
1v
1)
b1111 ,
13
0P
1G
14
0H
0A
0:
0.
b0 !
b0 -
0{
0}
#1120000
0"
#1125000
1"
#1126000
1~
1[
1\
0'
1&
0v
1(
0V
1a
1("
10"
03
1Q
0)
1%
1g
b1110 ,
1t
04
1P
1O
0G
1n
1h
1u
1H
1A
1:
1.
1I
1B
1;
1i
1b
1o
1{
1%"
1-"
b1111 !
b1111 -
15"
1}
1'"
1/"
17"
#1130000
0"
#1135000
1"
#1136000
0~
0[
0\
1'
1V
0(
1v
0Q
b1101 ,
13
0O
14
0H
0A
0:
0.
b1110 !
b1110 -
0{
0}
#1140000
0"
#1145000
1"
